Project
…
traffic_train_train %>% 
  group_by(yearweek) %>% 
  summarise(AvgTraffic_bc=mean(traffic, na.rm=T),
            Count=n()) %>% 
  arrange(desc(AvgTraffic_bc))

## # A tibble: 53 x 3
##    yearweek AvgTraffic_bc Count
##    <fct>            <dbl> <int>
##  1 42               3656.   390
##  2 34               3572.   253
##  3 17               3569.   263
##  4 33               3527.   389
##  5 30               3519.   432
##  6 31               3469.   449
##  7 22               3452.   409
##  8 38               3452.   311
##  9 20               3447.   458
## 10 19               3439.   392
## # ... with 43 more rows
…
